{
  "users": [
    {
      "id": 0,
      "isActive": true,
      "balance": "$1,638.20",
      "picture": "http://placehold.it/128x128",
      "age": 25,
      "accessLevel": "user",
      "firstName": "Luann",
      "lastName": "Osborne",
      "company": "ORBIN",
      "email": "luann.osborne@orbin.tv",
      "phone": "+7 (933) 441-3886",
      "address": "875 Seigel Court, Lopezo, Alaska, 320",
      "about": "Sunt culpa commodo proident sunt deserunt. Tempor nisi laboris nisi irure enim. Proident sint eiusmod amet sunt minim fugiat sunt sint anim magna deserunt. Pariatur commodo ut eiusmod sit culpa ex elit dolore officia cupidatat occaecat eu consectetur. Duis deserunt adipisicing sit velit. Est minim in amet excepteur veniam laboris consequat cillum exercitation elit Lorem voluptate id nisi. Aute ullamco do Lorem aliqua deserunt do incididunt.",
      "registered": "23.12.2017"
    },
    {
      "id": 1,
      "isActive": false,
      "balance": "$2,537.13",
      "picture": "http://placehold.it/128x128",
      "age": 33,
      "accessLevel": "admin",
      "firstName": "Cherry",
      "lastName": "Meyers",
      "company": "INTERFIND",
      "email": "cherry.meyers@interfind.co.uk",
      "phone": "+7 (918) 502-2585",
      "address": "717 Bushwick Avenue, Hachita, Florida, 969",
      "about": "Officia esse commodo ullamco cillum veniam excepteur est minim commodo deserunt mollit ad. Nisi id nulla ipsum elit aute cupidatat id magna dolor cillum non. Mollit nisi culpa voluptate voluptate culpa nostrud ipsum cupidatat consectetur ut et deserunt voluptate. Sunt anim veniam fugiat sint enim elit tempor Lorem. Laborum dolor et amet nulla sunt duis do occaecat aliqua est tempor commodo aliqua. Aute duis ex consequat nostrud et anim sit enim in ea officia irure Lorem. Ut quis officia labore dolore excepteur deserunt do mollit qui qui labore cillum.",
      "registered": "03.08.2015"
    },
    {
      "id": 2,
      "isActive": false,
      "balance": "$1,430.17",
      "picture": "http://placehold.it/128x128",
      "age": 22,
      "accessLevel": "admin",
      "firstName": "Alyce",
      "lastName": "Lowery",
      "company": "VELOS",
      "email": "alyce.lowery@velos.me",
      "phone": "+7 (840) 503-3835",
      "address": "589 Tiffany Place, Sanford, Federated States Of Micronesia, 8477",
      "about": "Velit proident est officia consequat excepteur veniam voluptate amet dolore fugiat eiusmod. Duis duis aute deserunt consectetur consequat do velit mollit. Sint sit exercitation ea proident. Esse ad enim anim fugiat occaecat anim amet ipsum dolore exercitation enim quis labore. Incididunt irure consectetur sunt labore nulla consequat ullamco nisi magna dolore est ea. Officia culpa tempor duis ex minim voluptate sint reprehenderit quis.",
      "registered": "22.02.2017"
    },
    {
      "id": 3,
      "isActive": false,
      "balance": "$1,795.86",
      "picture": "http://placehold.it/128x128",
      "age": 29,
      "accessLevel": "guest",
      "firstName": "Rivers",
      "lastName": "Snyder",
      "company": "MEMORA",
      "email": "rivers.snyder@memora.net",
      "phone": "+7 (952) 420-2885",
      "address": "823 Grace Court, Hardyville, Puerto Rico, 1012",
      "about": "Sint esse laboris nulla eiusmod fugiat. Nostrud ex mollit ut mollit velit aute eiusmod irure proident velit voluptate commodo velit. Culpa velit adipisicing adipisicing dolore.",
      "registered": "17.01.2016"
    },
    {
      "id": 4,
      "isActive": false,
      "balance": "$3,338.16",
      "picture": "http://placehold.it/128x128",
      "age": 32,
      "accessLevel": "user",
      "firstName": "Kaufman",
      "lastName": "Chavez",
      "company": "BALOOBA",
      "email": "kaufman.chavez@balooba.biz",
      "phone": "+7 (957) 435-3832",
      "address": "297 Dahill Road, Temperanceville, Guam, 5539",
      "about": "Proident cupidatat commodo consectetur aliquip cillum. Velit ex ullamco enim officia sint. Et magna reprehenderit eu velit aute. Eiusmod exercitation mollit sit exercitation duis.",
      "registered": "26.12.2014"
    },
    {
      "id": 5,
      "isActive": false,
      "balance": "$1,016.60",
      "picture": "http://placehold.it/128x128",
      "age": 39,
      "accessLevel": "user",
      "firstName": "Esmeralda",
      "lastName": "Drake",
      "company": "OHMNET",
      "email": "esmeralda.drake@ohmnet.name",
      "phone": "+7 (949) 584-2626",
      "address": "393 Pooles Lane, Harleigh, Virgin Islands, 5948",
      "about": "Irure id officia duis sunt minim aliquip. Laborum consectetur amet dolor aliquip. Velit cupidatat veniam aute mollit tempor ullamco proident. Lorem non ut quis qui in in fugiat eiusmod tempor cupidatat adipisicing id excepteur.",
      "registered": "01.05.2015"
    },
    {
      "id": 6,
      "isActive": false,
      "balance": "$3,205.58",
      "picture": "http://placehold.it/128x128",
      "age": 21,
      "accessLevel": "admin",
      "firstName": "Angelita",
      "lastName": "Chaney",
      "company": "COMTENT",
      "email": "angelita.chaney@comtent.ca",
      "phone": "+7 (831) 484-2805",
      "address": "246 Everett Avenue, Emerald, Vermont, 1898",
      "about": "In incididunt ad amet aliquip nisi. Nulla velit nostrud amet ut non nisi duis amet. Id nulla commodo minim nostrud cupidatat. Do est aute esse exercitation fugiat deserunt sit quis mollit non eiusmod nisi.",
      "registered": "06.08.2016"
    },
    {
      "id": 7,
      "isActive": true,
      "balance": "$2,947.65",
      "picture": "http://placehold.it/128x128",
      "age": 40,
      "accessLevel": "guest",
      "firstName": "Antoinette",
      "lastName": "Booker",
      "company": "CINASTER",
      "email": "antoinette.booker@cinaster.org",
      "phone": "+7 (924) 498-3372",
      "address": "429 Howard Avenue, Blende, Mississippi, 9932",
      "about": "Sit aliqua duis labore commodo eiusmod enim aliquip dolore mollit. Labore irure irure mollit nisi ipsum pariatur exercitation sint aute anim voluptate. Fugiat excepteur incididunt minim occaecat fugiat duis incididunt elit laboris esse mollit tempor aliquip fugiat. Laboris id mollit ipsum incididunt amet sint nulla ut commodo. Veniam reprehenderit nulla consequat deserunt duis quis elit nisi sunt dolor consequat ipsum nostrud. Voluptate Lorem irure amet ex officia consectetur commodo. Adipisicing esse quis voluptate voluptate do quis.",
      "registered": "20.12.2016"
    },
    {
      "id": 8,
      "isActive": true,
      "balance": "$2,231.30",
      "picture": "http://placehold.it/128x128",
      "age": 20,
      "accessLevel": "user",
      "firstName": "Alston",
      "lastName": "Hart",
      "company": "DELPHIDE",
      "email": "alston.hart@delphide.info",
      "phone": "+7 (998) 556-2373",
      "address": "604 Saratoga Avenue, Coloma, New Mexico, 8886",
      "about": "Excepteur Lorem adipisicing eu tempor. Labore deserunt ea deserunt aute fugiat non quis tempor excepteur culpa nostrud aute dolore enim. Lorem eiusmod adipisicing ad in irure aliqua Lorem voluptate deserunt. Sint ut occaecat officia sint. Sit laboris id cupidatat proident cillum et sint qui aliquip elit esse voluptate qui.",
      "registered": "30.05.2014"
    },
    {
      "id": 9,
      "isActive": false,
      "balance": "$1,110.28",
      "picture": "http://placehold.it/128x128",
      "age": 35,
      "accessLevel": "admin",
      "firstName": "Yates",
      "lastName": "Lindsey",
      "company": "LETPRO",
      "email": "yates.lindsey@letpro.io",
      "phone": "+7 (918) 502-2052",
      "address": "392 Delevan Street, Hall, Rhode Island, 2896",
      "about": "Laborum occaecat laborum sint ut mollit aliqua qui ut sunt eu sit sint. Minim dolore do anim sit deserunt magna consequat aute dolore mollit cillum. Ea elit enim adipisicing sunt sunt incididunt officia commodo. Mollit ex aute reprehenderit exercitation voluptate irure sint aliqua ea velit nulla do dolore. Tempor mollit voluptate incididunt ex sunt anim incididunt.",
      "registered": "28.02.2015"
    },
    {
      "id": 10,
      "isActive": true,
      "balance": "$1,189.65",
      "picture": "http://placehold.it/128x128",
      "age": 20,
      "accessLevel": "admin",
      "firstName": "Sheena",
      "lastName": "Sykes",
      "company": "PROSELY",
      "email": "sheena.sykes@prosely.biz",
      "phone": "+7 (919) 474-2514",
      "address": "504 Friel Place, Matheny, Arizona, 496",
      "about": "Sit consectetur consectetur deserunt sint tempor pariatur ut consequat esse. Minim nisi dolor do eiusmod pariatur laboris. Tempor irure duis ullamco labore. Labore consequat Lorem quis culpa.",
      "registered": "28.06.2014"
    }
  ]
}